----------------------------------------------------------------------------------
Command:    c:\5e97e4a611c470eb725445b7efc6d1\MPSigStub.exe  WD /q
Start time: 11-03-2012 01:20 (version 11.1.3927.0)

================================= CacheMpSigStub =================================

Copied MpSigStub.exe to C:\Windows\system32\MpSigStub.exe

=================================== ProductSearch ==================================

             Microsoft Windows Defender (Windows 7):
     Status: Active                                 
    Product: 6.1.7600.16385                         
     Engine: Not found                              
 Signatures: Not found                              

================================ PackageDiscovery ================================

Package files discovered:
c:\5e97e4a611c470eb725445b7efc6d1\mpasbase.vdm (1.121.0.0)
c:\5e97e4a611c470eb725445b7efc6d1\mpasdlta.vdm (1.121.1200.0)
c:\5e97e4a611c470eb725445b7efc6d1\mpengine.dll (1.1.8101.0)

               AS FE:      
       Engine: 1.1.8101.0  
  AS base VDM: 1.121.0.0   
  AV base VDM: Not included
 AS delta VDM: 1.121.1200.0
 AV delta VDM: Not included

================================= MpUpdateEngine =================================

Package files for the engine update:
c:\5e97e4a611c470eb725445b7efc6d1\mpasbase.vdm (1.121.0.0)
c:\5e97e4a611c470eb725445b7efc6d1\mpasdlta.vdm (1.121.1200.0)
c:\5e97e4a611c470eb725445b7efc6d1\mpengine.dll (1.1.8101.0)

Updated from c:\5e97e4a611c470eb725445b7efc6d1 (0x0)

================================= ValidateUpdate =================================

MpSigStub successfully updated Microsoft Windows Defender (Windows 7) using the AS FE package.

               Original:  Updated to: 
       Engine: 0.0.0.0    1.1.8101.0  
  AS base VDM: 0.0.0.0    1.121.0.0   
 AS delta VDM: 0.0.0.0    1.121.1200.0

Set DeltaUpdateFailure to 0
Set BddUpdateFailure to 0
Deleted c:\5e97e4a611c470eb725445b7efc6d1\mpasbase.vdm
Deleted c:\5e97e4a611c470eb725445b7efc6d1\mpasdlta.vdm
Deleted c:\5e97e4a611c470eb725445b7efc6d1\mpengine.dll
End time: 11-03-2012 01:20
----------------------------------------------------------------------------------

----------------------------------------------------------------------------------
Command:    MpSigStub.exe /program c:\145fada73a4cd7f3e5cfb523f5\MpMiniSigStub.exe  WD /q
Start time: 14-03-2012 22:21 (version 11.1.3927.0)

=================================== ProductSearch ==================================

             Microsoft Windows Defender (Windows 7):
     Status: Active                                 
    Product: 6.1.7600.16385                         
     Engine: 1.1.8101.0                             
 Signatures: 1.121.1200.0                           

================================ PackageDiscovery ================================

Package files discovered:
c:\145fada73a4cd7f3e5cfb523f5\1.121.1200.0_to_1.121.1421.0_mpasdlta.vdm._p (?.?.?.?)

               AS BDD:     
       Engine: Not included
  AS base VDM: Not included
  AV base VDM: Not included
 AS delta VDM: 1.121.1421.0
 AV delta VDM: Not included

================================ PatchApplication ================================

Patched mpasdlta.vdm to 1.121.1421.0

================================= MpUpdateEngine =================================

Package files for the engine update:
c:\145fada73a4cd7f3e5cfb523f5\1.121.1200.0_to_1.121.1421.0_mpasdlta.vdm._p (?.?.?.?)
c:\145fada73a4cd7f3e5cfb523f5\mpasdlta.vdm (1.121.1421.0)

Updated from c:\145fada73a4cd7f3e5cfb523f5 (0x0)

================================= ValidateUpdate =================================

MpSigStub successfully updated Microsoft Windows Defender (Windows 7) using the AS BDD package.

               Original:     Updated to: 
 AS delta VDM: 1.121.1200.0  1.121.1421.0

Set DeltaUpdateFailure to 0
Set BddUpdateFailure to 0
Deleted c:\145fada73a4cd7f3e5cfb523f5\1.121.1200.0_to_1.121.1421.0_mpasdlta.vdm._p
Deleted c:\145fada73a4cd7f3e5cfb523f5\mpasdlta.vdm
End time: 14-03-2012 22:21
----------------------------------------------------------------------------------

----------------------------------------------------------------------------------
Command:    MpSigStub.exe /program c:\de60f098118f755bbb9ca828e2cda7\MpMiniSigStub.exe  WD /q
Start time: 17-03-2012 16:37 (version 11.1.3927.0)

=================================== ProductSearch ==================================

             Microsoft Windows Defender (Windows 7):
     Status: Active                                 
    Product: 6.1.7600.16385                         
     Engine: 1.1.8101.0                             
 Signatures: 1.121.1421.0                           

================================ PackageDiscovery ================================

Package files discovered:
c:\de60f098118f755bbb9ca828e2cda7\1.121.1421.0_to_1.121.1660.0_mpasdlta.vdm._p (?.?.?.?)

               AS BDD:     
       Engine: Not included
  AS base VDM: Not included
  AV base VDM: Not included
 AS delta VDM: 1.121.1660.0
 AV delta VDM: Not included

================================ PatchApplication ================================

Patched mpasdlta.vdm to 1.121.1660.0

================================= MpUpdateEngine =================================

Package files for the engine update:
c:\de60f098118f755bbb9ca828e2cda7\1.121.1421.0_to_1.121.1660.0_mpasdlta.vdm._p (?.?.?.?)
c:\de60f098118f755bbb9ca828e2cda7\mpasdlta.vdm (1.121.1660.0)

Updated from c:\de60f098118f755bbb9ca828e2cda7 (0x0)

================================= ValidateUpdate =================================

MpSigStub successfully updated Microsoft Windows Defender (Windows 7) using the AS BDD package.

               Original:     Updated to: 
 AS delta VDM: 1.121.1421.0  1.121.1660.0

Set DeltaUpdateFailure to 0
Set BddUpdateFailure to 0
Deleted c:\de60f098118f755bbb9ca828e2cda7\1.121.1421.0_to_1.121.1660.0_mpasdlta.vdm._p
Deleted c:\de60f098118f755bbb9ca828e2cda7\mpasdlta.vdm
End time: 17-03-2012 16:37
----------------------------------------------------------------------------------

----------------------------------------------------------------------------------
Command:    c:\0511724dffbf1eee019537c7c6e7\MPSigStub.exe  WD /q
Start time: 24-03-2012 22:48 (version 11.1.3927.0)

================================= CacheMpSigStub =================================

Copied MpSigStub.exe to C:\Windows\system32\MpSigStub.exe

=================================== ProductSearch ==================================

             Microsoft Windows Defender (Windows 7):
     Status: Active                                 
    Product: 6.1.7600.16385                         
     Engine: 1.1.8101.0                             
 Signatures: 1.121.1660.0                           

================================ PackageDiscovery ================================

Package files discovered:
c:\0511724dffbf1eee019537c7c6e7\mpengine.dll._p (?.?.?.?)
c:\0511724dffbf1eee019537c7c6e7\mpasbase.vdm._p (?.?.?.?)
c:\0511724dffbf1eee019537c7c6e7\mpasdlta.vdm (1.123.212.0)

               AS BDE:     
       Engine: ?.?.?.?     
  AS base VDM: ?.?.?.?     
  AV base VDM: Not included
 AS delta VDM: 1.123.212.0 
 AV delta VDM: Not included

================================ PatchApplication ================================

Patched mpengine.dll to 1.1.8202.0
Patched mpasbase.vdm to 1.123.0.0

================================= MpUpdateEngine =================================

Package files for the engine update:
c:\0511724dffbf1eee019537c7c6e7\mpengine.dll._p (?.?.?.?)
c:\0511724dffbf1eee019537c7c6e7\mpasbase.vdm._p (?.?.?.?)
c:\0511724dffbf1eee019537c7c6e7\mpasbase.vdm (1.123.0.0)
c:\0511724dffbf1eee019537c7c6e7\mpasdlta.vdm (1.123.212.0)
c:\0511724dffbf1eee019537c7c6e7\mpengine.dll (1.1.8202.0)

Updated from c:\0511724dffbf1eee019537c7c6e7 (0x0)

================================= ValidateUpdate =================================

MpSigStub successfully updated Microsoft Windows Defender (Windows 7) using the AS BDE package.

               Original:     Updated to:
       Engine: 1.1.8101.0    1.1.8202.0 
  AS base VDM: 1.121.0.0     1.123.0.0  
 AS delta VDM: 1.121.1660.0  1.123.212.0

Set DeltaUpdateFailure to 0
Set BddUpdateFailure to 0
Deleted c:\0511724dffbf1eee019537c7c6e7\mpengine.dll._p
Deleted c:\0511724dffbf1eee019537c7c6e7\mpasbase.vdm._p
Deleted c:\0511724dffbf1eee019537c7c6e7\mpasbase.vdm
Deleted c:\0511724dffbf1eee019537c7c6e7\mpasdlta.vdm
Deleted c:\0511724dffbf1eee019537c7c6e7\mpengine.dll
End time: 24-03-2012 22:48
----------------------------------------------------------------------------------

----------------------------------------------------------------------------------
Command:    MpSigStub.exe /program c:\492a0ddb765788064d8f\MpMiniSigStub.exe  WD /q
Start time: 28-03-2012 22:40 (version 11.1.3927.0)

=================================== ProductSearch ==================================

             Microsoft Windows Defender (Windows 7):
     Status: Active                                 
    Product: 6.1.7600.16385                         
     Engine: 1.1.8202.0                             
 Signatures: 1.123.212.0                            

================================ PackageDiscovery ================================

Package files discovered:
c:\492a0ddb765788064d8f\1.123.212.0_to_1.123.449.0_mpasdlta.vdm._p (?.?.?.?)

               AS BDD:     
       Engine: Not included
  AS base VDM: Not included
  AV base VDM: Not included
 AS delta VDM: 1.123.449.0 
 AV delta VDM: Not included

================================ PatchApplication ================================

Patched mpasdlta.vdm to 1.123.449.0

================================= MpUpdateEngine =================================

Package files for the engine update:
c:\492a0ddb765788064d8f\1.123.212.0_to_1.123.449.0_mpasdlta.vdm._p (?.?.?.?)
c:\492a0ddb765788064d8f\mpasdlta.vdm (1.123.449.0)

Updated from c:\492a0ddb765788064d8f (0x0)

================================= ValidateUpdate =================================

MpSigStub successfully updated Microsoft Windows Defender (Windows 7) using the AS BDD package.

               Original:    Updated to:
 AS delta VDM: 1.123.212.0  1.123.449.0

Set DeltaUpdateFailure to 0
Set BddUpdateFailure to 0
Deleted c:\492a0ddb765788064d8f\1.123.212.0_to_1.123.449.0_mpasdlta.vdm._p
Deleted c:\492a0ddb765788064d8f\mpasdlta.vdm
End time: 28-03-2012 22:41
----------------------------------------------------------------------------------

----------------------------------------------------------------------------------
Command:    MpSigStub.exe /program c:\e04164ea5b39eef4c2\MpMiniSigStub.exe  WD /q
Start time: 31-03-2012 14:10 (version 11.1.3927.0)

=================================== ProductSearch ==================================

             Microsoft Windows Defender (Windows 7):
     Status: Active                                 
    Product: 6.1.7600.16385                         
     Engine: 1.1.8202.0                             
 Signatures: 1.123.449.0                            

================================ PackageDiscovery ================================

Package files discovered:
c:\e04164ea5b39eef4c2\1.123.449.0_to_1.123.738.0_mpasdlta.vdm._p (?.?.?.?)

               AS BDD:     
       Engine: Not included
  AS base VDM: Not included
  AV base VDM: Not included
 AS delta VDM: 1.123.738.0 
 AV delta VDM: Not included

================================ PatchApplication ================================

Patched mpasdlta.vdm to 1.123.738.0

================================= MpUpdateEngine =================================

Package files for the engine update:
c:\e04164ea5b39eef4c2\1.123.449.0_to_1.123.738.0_mpasdlta.vdm._p (?.?.?.?)
c:\e04164ea5b39eef4c2\mpasdlta.vdm (1.123.738.0)

Updated from c:\e04164ea5b39eef4c2 (0x0)

================================= ValidateUpdate =================================

MpSigStub successfully updated Microsoft Windows Defender (Windows 7) using the AS BDD package.

               Original:    Updated to:
 AS delta VDM: 1.123.449.0  1.123.738.0

Set DeltaUpdateFailure to 0
Set BddUpdateFailure to 0
Deleted c:\e04164ea5b39eef4c2\1.123.449.0_to_1.123.738.0_mpasdlta.vdm._p
Deleted c:\e04164ea5b39eef4c2\mpasdlta.vdm
End time: 31-03-2012 14:10
----------------------------------------------------------------------------------

----------------------------------------------------------------------------------
Command:    MpSigStub.exe /program c:\e1b48c93edc581e90441\MpMiniSigStub.exe  WD /q
Start time: 06-04-2012 04:14 (version 11.1.3927.0)

=================================== ProductSearch ==================================

             Microsoft Windows Defender (Windows 7):
     Status: Active                                 
    Product: 6.1.7600.16385                         
     Engine: 1.1.8202.0                             
 Signatures: 1.123.738.0                            

================================ PackageDiscovery ================================

Package files discovered:
c:\e1b48c93edc581e90441\1.123.738.0_to_1.123.978.0_mpasdlta.vdm._p (?.?.?.?)

               AS BDD:     
       Engine: Not included
  AS base VDM: Not included
  AV base VDM: Not included
 AS delta VDM: 1.123.978.0 
 AV delta VDM: Not included

================================ PatchApplication ================================

Patched mpasdlta.vdm to 1.123.978.0

================================= MpUpdateEngine =================================

Package files for the engine update:
c:\e1b48c93edc581e90441\1.123.738.0_to_1.123.978.0_mpasdlta.vdm._p (?.?.?.?)
c:\e1b48c93edc581e90441\mpasdlta.vdm (1.123.978.0)

Updated from c:\e1b48c93edc581e90441 (0x0)

================================= ValidateUpdate =================================

MpSigStub successfully updated Microsoft Windows Defender (Windows 7) using the AS BDD package.

               Original:    Updated to:
 AS delta VDM: 1.123.738.0  1.123.978.0

Set DeltaUpdateFailure to 0
Set BddUpdateFailure to 0
Deleted c:\e1b48c93edc581e90441\1.123.738.0_to_1.123.978.0_mpasdlta.vdm._p
Deleted c:\e1b48c93edc581e90441\mpasdlta.vdm
End time: 06-04-2012 04:14
----------------------------------------------------------------------------------

----------------------------------------------------------------------------------
Command:    MpSigStub.exe /program c:\02ef07181387392e0cbf86\MpMiniSigStub.exe  WD /q
Start time: 07-04-2012 09:39 (version 11.1.3927.0)

=================================== ProductSearch ==================================

             Microsoft Windows Defender (Windows 7):
     Status: Active                                 
    Product: 6.1.7600.16385                         
     Engine: 1.1.8202.0                             
 Signatures: 1.123.978.0                            

================================ PackageDiscovery ================================

Package files discovered:
c:\02ef07181387392e0cbf86\1.123.978.0_to_1.123.1222.0_mpasdlta.vdm._p (?.?.?.?)

               AS BDD:     
       Engine: Not included
  AS base VDM: Not included
  AV base VDM: Not included
 AS delta VDM: 1.123.1222.0
 AV delta VDM: Not included

================================ PatchApplication ================================

Patched mpasdlta.vdm to 1.123.1222.0

================================= MpUpdateEngine =================================

Package files for the engine update:
c:\02ef07181387392e0cbf86\1.123.978.0_to_1.123.1222.0_mpasdlta.vdm._p (?.?.?.?)
c:\02ef07181387392e0cbf86\mpasdlta.vdm (1.123.1222.0)

Updated from c:\02ef07181387392e0cbf86 (0x0)

================================= ValidateUpdate =================================

MpSigStub successfully updated Microsoft Windows Defender (Windows 7) using the AS BDD package.

               Original:    Updated to: 
 AS delta VDM: 1.123.978.0  1.123.1222.0

Set DeltaUpdateFailure to 0
Set BddUpdateFailure to 0
Deleted c:\02ef07181387392e0cbf86\1.123.978.0_to_1.123.1222.0_mpasdlta.vdm._p
Deleted c:\02ef07181387392e0cbf86\mpasdlta.vdm
End time: 07-04-2012 09:39
----------------------------------------------------------------------------------

